{
    "fluentMethods": true,
    "clientRootFolder": "",
    "relationships": [
        {
            "relationshipName": "curso",
            "otherEntityName": "curso",
            "relationshipType": "many-to-one",
            "relationshipValidateRules": [
                "required"
            ],
            "otherEntityField": "nombre"
        },
        {
            "relationshipName": "pago",
            "otherEntityName": "pago",
            "relationshipType": "many-to-one",
            "otherEntityField": "id"
        },
        {
            "relationshipName": "alumno",
            "otherEntityName": "user",
            "relationshipType": "many-to-one",
            "relationshipValidateRules": [
                "required"
            ],
            "otherEntityField": "login",
            "ownerSide": true,
            "otherEntityRelationshipName": "inscripcion"
        }
    ],
    "fields": [
        {
            "fieldName": "fecha",
            "fieldType": "Instant",
            "fieldValidateRules": [
                "required"
            ]
        },
        {
            "fieldName": "comentarios",
            "fieldType": "String"
        }
    ],
    "changelogDate": "20190520002402",
    "dto": "no",
    "searchEngine": false,
    "service": "no",
    "entityTableName": "inscripcion",
    "databaseType": "sql",
    "jpaMetamodelFiltering": false,
    "pagination": "pagination"
}
