{
    "fluentMethods": true,
    "clientRootFolder": "",
    "relationships": [
        {
            "relationshipName": "tipoPago",
            "otherEntityName": "tipoPago",
            "relationshipType": "many-to-one",
            "relationshipValidateRules": [
                "required"
            ],
            "otherEntityField": "nombre",
            "otherEntityRelationshipNameUndefined": false,
            "otherEntityRelationshipName": "pago"
        },
        {
            "relationshipName": "estatusPago",
            "otherEntityName": "estatusPago",
            "relationshipType": "many-to-one",
            "otherEntityField": "nombre",
            "otherEntityRelationshipName": "pago",
            "otherEntityRelationshipNameUndefined": false
        },
        {
            "relationshipName": "moneda",
            "otherEntityName": "moneda",
            "relationshipType": "many-to-one",
            "relationshipValidateRules": [
                "required"
            ],
            "otherEntityField": "simbolo",
            "otherEntityRelationshipName": "pago",
            "otherEntityRelationshipNameUndefined": false
        }
    ],
    "fields": [
        {
            "fieldName": "fecha",
            "fieldType": "Instant",
            "fieldValidateRules": [
                "required"
            ]
        },
        {
            "fieldName": "monto",
            "fieldType": "Float",
            "fieldValidateRules": [
                "required"
            ]
        },
        {
            "fieldName": "fotoComprobante",
            "fieldType": "byte[]",
            "fieldTypeBlobContent": "image"
        },
        {
            "fieldName": "fechaStatus",
            "fieldType": "Instant"
        },
        {
            "fieldName": "numeroTransaccion",
            "fieldType": "String"
        }
    ],
    "changelogDate": "20190519233641",
    "dto": "no",
    "searchEngine": false,
    "service": "no",
    "entityTableName": "pago",
    "databaseType": "sql",
    "jpaMetamodelFiltering": false,
    "pagination": "pagination"
}
